Family,Genus,Taxon_name,Common_name,Italian_name,Classification,Italian_classificazione,Occurrence,Australia,Papua,Indonesia,Papua New Guinea,Native_of_,Population_trend,Habitat,overhunting_wild_dogs,habitat_gegradation,climate_change,predation_introduced_species,Threats,Systems,Severely fragmented,Protection,Protection_subtype
Ornithorhynchidae,Ornithorhynchus,Ornithorhynchus anatinus,Platypus,Ornitorinco,Near Threatened,Quasi a rischio,Australia,yes,no,no,no,Australia (New South Wales  Queensland  South Australia  Tasmania  Victoria),Decreasing,streams and suitable freshwater bodies,,yes,yes,yes,reduction in stream and river flows due to recent successive droughts  stream regulation  and extraction of water for agricultural  domestic  and industrial supplies& extensive flooding due to climate change& Habitat modification due to bank erosion and stream sedimentation& poor water quality in urban areas& accidental drowning in nets& predation by introduced fox  cats  dogs,Terrestrial  Freshwater,no,Land/water protection , Resource & habitat protection
Ornithorhynchidae,Ornithorhynchus,Ornithorhynchus anatinus,Platypus,Ornitorinco,Near Threatened,Quasi a rischio,Australia,yes,no,no,no,Australia (New South Wales  Queensland  South Australia  Tasmania  Victoria),Decreasing,streams and suitable freshwater bodies,,yes,yes,yes,reduction in stream and river flows due to recent successive droughts  stream regulation  and extraction of water for agricultural  domestic  and industrial supplies& extensive flooding due to climate change& Habitat modification due to bank erosion and stream sedimentation& poor water quality in urban areas& accidental drowning in nets& predation by introduced fox  cats  dogs,Terrestrial  Freshwater,no,Land/water management , Site/area management
Ornithorhynchidae,Ornithorhynchus,Ornithorhynchus anatinus,Platypus,Ornitorinco,Near Threatened,Quasi a rischio,Australia,yes,no,no,no,Australia (New South Wales  Queensland  South Australia  Tasmania  Victoria),Decreasing,streams and suitable freshwater bodies,,yes,yes,yes,reduction in stream and river flows due to recent successive droughts  stream regulation  and extraction of water for agricultural  domestic  and industrial supplies& extensive flooding due to climate change& Habitat modification due to bank erosion and stream sedimentation& poor water quality in urban areas& accidental drowning in nets& predation by introduced fox  cats  dogs,Terrestrial  Freshwater,no,Land/water management , Invasive/problematic species control
Ornithorhynchidae,Ornithorhynchus,Ornithorhynchus anatinus,Platypus,Ornitorinco,Near Threatened,Quasi a rischio,Australia,yes,no,no,no,Australia (New South Wales  Queensland  South Australia  Tasmania  Victoria),Decreasing,streams and suitable freshwater bodies,,yes,yes,yes,reduction in stream and river flows due to recent successive droughts  stream regulation  and extraction of water for agricultural  domestic  and industrial supplies& extensive flooding due to climate change& Habitat modification due to bank erosion and stream sedimentation& poor water quality in urban areas& accidental drowning in nets& predation by introduced fox  cats  dogs,Terrestrial  Freshwater,no,Land/water management , Habitat & natural process restoration
Ornithorhynchidae,Ornithorhynchus,Ornithorhynchus anatinus,Platypus,Ornitorinco,Near Threatened,Quasi a rischio,Australia,yes,no,no,no,Australia (New South Wales  Queensland  South Australia  Tasmania  Victoria),Decreasing,streams and suitable freshwater bodies,,yes,yes,yes,reduction in stream and river flows due to recent successive droughts  stream regulation  and extraction of water for agricultural  domestic  and industrial supplies& extensive flooding due to climate change& Habitat modification due to bank erosion and stream sedimentation& poor water quality in urban areas& accidental drowning in nets& predation by introduced fox  cats  dogs,Terrestrial  Freshwater,no,Species management , Species recovery
Tachyglossidae,Zaglossus,Zaglossus bruijnii,Long-beaked Echidna,Echidna dal becco lungo,Critically Endangered,Gravemente minacciato,Papua,no,yes,no,no,Indonesia (Papua),Decreasing,tropical hill forests to upper montane forests,yes,yes,,,overhunting with dogs  habitat degradation and conversion,Terrestrial,no,Land/water protection , Site/area protection
Tachyglossidae,Zaglossus,Zaglossus bruijnii,Long-beaked Echidna,Echidna dal becco lungo,Critically Endangered,Gravemente minacciato,Papua,no,yes,no,no,Indonesia (Papua),Decreasing,tropical hill forests to upper montane forests,yes,yes,,,overhunting with dogs  habitat degradation and conversion,Terrestrial,no,Land/water protection , Resource & habitat protection
Tachyglossidae,Zaglossus,Zaglossus bruijnii,Long-beaked Echidna,Echidna dal becco lungo,Critically Endangered,Gravemente minacciato,Papua,no,yes,no,no,Indonesia (Papua),Decreasing,tropical hill forests to upper montane forests,yes,yes,,,overhunting with dogs  habitat degradation and conversion,Terrestrial,no,Species management , Harvest management
Tachyglossidae,Zaglossus,Zaglossus bruijnii,Long-beaked Echidna,Echidna dal becco lungo,Critically Endangered,Gravemente minacciato,Papua,no,yes,no,no,Indonesia (Papua),Decreasing,tropical hill forests to upper montane forests,yes,yes,,,overhunting with dogs  habitat degradation and conversion,Terrestrial,no,Education & awareness , Awareness & communications
Tachyglossidae,Tachyglossus,Tachyglossus aculeatus,Short-beaked Echidna,Echidna dal becco corto,Least Concern,Rischio minimo,Australia  Indonesia  Papua New Guinea,yes,no,yes,yes,Australia (Australian Capital Territory  New South Wales  Northern Territory  Queensland  South Australia  Tasmania  Victoria  Western Australia)& Indonesia (Papua)& Papua New Guinea,Stable,open woodland types  savannah and semi-arid and arid areas  and rainforest,yes,,,,overhunting for food,Terrestrial,no,Land/water protection , Site/area protection
Tachyglossidae,Tachyglossus,Tachyglossus aculeatus,Short-beaked Echidna,Echidna dal becco corto,Least Concern,Rischio minimo,Australia  Indonesia  Papua New Guinea,yes,no,yes,yes,Australia (Australian Capital Territory  New South Wales  Northern Territory  Queensland  South Australia  Tasmania  Victoria  Western Australia)& Indonesia (Papua)& Papua New Guinea,Stable,open woodland types  savannah and semi-arid and arid areas  and rainforest,yes,,,,overhunting for food,Terrestrial,no,Land/water management , Site/area management
Tachyglossidae,Zaglossus,Zaglossus attenboroughi,Sir David's Long-beaked Echidna,Echidna dal becco lungo di Sir David,Critically Endangered,Gravemente minacciato,Indonesia,no,no,yes,no,Indonesia,Decreasing,tropical montane forest,yes,,,,human predation with the use of trained hunting dogs,Terrestrial,no,Residential & commercial development , Housing & urban areas
Tachyglossidae,Zaglossus,Zaglossus attenboroughi,Sir David's Long-beaked Echidna,Echidna dal becco lungo di Sir David,Critically Endangered,Gravemente minacciato,Indonesia,no,no,yes,no,Indonesia,Decreasing,tropical montane forest,yes,,,,human predation with the use of trained hunting dogs,Terrestrial,no,Agriculture & aquaculture , Annual & perennial non timber crops&   Small holder farming 
Tachyglossidae,Zaglossus,Zaglossus attenboroughi,Sir David's Long-beaked Echidna,Echidna dal becco lungo di Sir David,Critically Endangered,Gravemente minacciato,Indonesia,no,no,yes,no,Indonesia,Decreasing,tropical montane forest,yes,,,,human predation with the use of trained hunting dogs,Terrestrial,no, Biological resource use  Hunting & trapping terrestrial animals, Intentional use (species is the target)
Tachyglossidae,Zaglossus,Zaglossus bartoni,Eastern Long-beaked Echidna,Echidna dal becco lungo orientale,Vulnerable,Vulnerabile,Indonesia   Papua New Guinea ,no,no,yes,yes,Indonesia   Papua New Guinea ,Decreasing,from near sea level to 4150 metres a.s.l. It uses habitats including lowland hill forest  lower and upper montane forests  and sub-alpine forests  grasslands and scrub.,yes,,,,human predation with the use of trained hunting dogs,Terrestrial,no,Land/water protection , Resource & habitat protection
Tachyglossidae,Zaglossus,Zaglossus bartoni,Eastern Long-beaked Echidna,Echidna dal becco lungo orientale,Vulnerable,Vulnerabile,Indonesia   Papua New Guinea ,no,no,yes,yes,Indonesia   Papua New Guinea ,Decreasing,from near sea level to 4150 metres a.s.l. It uses habitats including lowland hill forest  lower and upper montane forests  and sub-alpine forests  grasslands and scrub.,yes,,,,human predation with the use of trained hunting dogs,Terrestrial,no,Species management , Harvest management
Tachyglossidae,Zaglossus,Zaglossus bartoni,Eastern Long-beaked Echidna,Echidna dal becco lungo orientale,Vulnerable,Vulnerabile,Indonesia   Papua New Guinea ,no,no,yes,yes,Indonesia   Papua New Guinea ,Decreasing,from near sea level to 4150 metres a.s.l. It uses habitats including lowland hill forest  lower and upper montane forests  and sub-alpine forests  grasslands and scrub.,yes,,,,human predation with the use of trained hunting dogs,Terrestrial,no,Education & awareness , Awareness & communications
